[
	{
		"id": 1,
		"url": "img/gallery/photos/img-ilce-7rm2-1.jpg",
		"thumb": {
			"src": "img/gallery/photos/thumb-img-ilce-7rm2-1.jpg",
			"width": 300,
			"height": 200
		},
		"camera": "ILCE-7RM2",
		"lens": "SEL2470GM",
		"categories": [ "landscape" ],
		"caption": "a7R II | FE 24-70mm F2.8 GM | 1.6 sec. | F8.0 | ISO200"
	},
	{
		"id": 2,
		"url": "img/gallery/photos/img-ilce-7rm2-2.jpg",
		"thumb": {
			"src": "img/gallery/photos/thumb-img-ilce-7rm2-2.jpg",
			"width": 300,
			"height": 200
		},
		"camera": "ILCE-7RM2",
		"lens": "SEL2470GM",
		"categories": [ "sportsaction" ],
		"caption": "a7R II | FE 24-70mm F2.8 GM | 1/2.5 sec. | F11.0 | ISO200"
	},
	{
		"id": 3,
		"url": "img/gallery/photos/img-ilce-7rm2-3.jpg",
		"thumb": {
			"src" : "img/gallery/photos/thumb-img-ilce-7rm2-3.jpg",
			"width": 300,
			"height": 200
		},
		"camera": "ILCE-7RM2",
		"lens": "SEL2470GM",
		"categories": [ "landscape" ],
		"caption": "a7R II | FE 24-70mm F2.8 GM | 1/1.6 sec. | F11.0 | ISO100"
	},
	{
		"id": 4,
		"url": "img/gallery/photos/img-ilce-7rm2-4.jpg",
		"thumb": {
			"src": "img/gallery/photos/thumb-img-ilce-7rm2-4.jpg",
			"width": 300,
			"height": 200
		},
		"camera": "ILCE-7RM2",
		"lens": "SEL2470GM",
		"categories": [ "landscape", "travel" ],
		"caption": "a7R II | FE 24-70mm F2.8 GM | 1/2.5 sec. | F11.0 | ISO100"
	},
	{
		"id": 5,
		"url": "img/gallery/photos/img-ilce-7rm2-5.jpg",
		"thumb": {
			"src": "img/gallery/photos/thumb-img-ilce-7rm2-5.jpg",
			"width": 300,
			"height": 200
		},
		"camera": "ILCE-7RM2",
		"lens": "SEL2470GM",
		"categories": [ "landscape", "travel" ],
		"caption": "a7R II | FE 24-70mm F2.8 GM | 1/400 sec. | F2.8 | ISO400"
	},
	{
		"id": 6,
		"url": "img/gallery/photos/img-ilce-7rm2-6.jpg",
		"thumb": {
			"src": "img/gallery/photos/thumb-img-ilce-7rm2-6.jpg",
			"width": 300,
			"height": 200
		},
		"camera": "ILCE-7RM2",
		"lens": "SEL8F14GM",
		"categories": [ "portrait" ],
		"caption": "a7R II | FE 85mm F1.4 GM | 1/125 sec. | F4.0 | ISO100"
	},
	{
		"id": 7,
		"url": "img/gallery/photos/img-ilce-7rm2-7.jpg",
		"thumb": {
			"src": "img/gallery/photos/thumb-img-ilce-7rm2-7.jpg",
			"width": 300,
			"height": 200
		},
		"camera": "ILCE-7RM2",
		"lens": "SEL8F14GM",
		"categories": [ "portrait" ],
		"caption": "a7R II | FE 85mm F1.4 GM"
	},
	{
		"id": 8,
		"url": "img/gallery/photos/img-ilce-7rm2-8.jpg",
		"thumb": {
			"src": "img/gallery/photos/thumb-img-ilce-7rm2-8.jpg",
			"width": 133,
			"height": 200
		},
		"camera": "ILCE-7RM2",
		"lens": "SEL70200GM",
		"categories": [ "landscape", "travel" ],
		"caption": "a7R II | FE 70-200mm F2.8 GM OSS | 1.0 sec. | F11.0 | ISO100"
	},
	{
		"id": 9,
		"url": "img/gallery/photos/img-ilce-7rm2-9.jpg",
		"thumb": {
			"src": "img/gallery/photos/thumb-img-ilce-7rm2-9.jpg",
			"width": 133,
			"height": 200
		},
		"camera": "ILCE-7RM2",
		"lens": "SEL70200GM",
		"categories": [ "portrait" ],
		"caption": "a7R II | FE 70-200mm F2.8 GM OSS | 1/40 sec. | F2.8 | ISO200"
	},
	{
		"id": 10,
		"url": "img/gallery/photos/img-ilce-7m2-1.jpg",
		"thumb": {
			"src": "img/gallery/photos/thumb-img-ilce-7m2-1.jpg",
			"width": 300,
			"height": 200
		},
		"camera": "ILCE-7M2",
		"lens": "SEL28F20",
		"categories": [ "travel", "snap" ],
		"caption": "a7 II | FE 28mm F2"
	},
	{
		"id": 11,
		"url": "img/gallery/photos/img-ilce-7m2-2.jpg",
		"thumb": {
			"src": "img/gallery/photos/thumb-img-ilce-7m2-2.jpg",
			"width": 300,
			"height": 200
		},
		"camera": "ILCE-7M2",
		"lens": "SEL28F20",
		"categories": [ "landscape", "snap" ],
		"caption": "a7 II | FE 28mm F2"
	},
	{
		"id": 12,
		"url": "img/gallery/photos/img-ilce-7sm2-1.jpg",
		"thumb": {
			"src": "img/gallery/photos/thumb-img-ilce-7sm2-1.jpg",
			"width": 299,
			"height": 200
		},
		"camera": "ILCE-7SM2",
		"lens": "SEL90M28G",
		"categories": [ "landscape", "macro", "nightscene" ],
		"caption": "a7S II | FE 90mm F2.8 Macro G OSS | 25 sec. | F8.0 | ISO3200"
	},
	{
		"id": 13,
		"url": "img/gallery/photos/img-ilce-7sm2-2.jpg",
		"thumb": {
			"src": "img/gallery/photos/thumb-img-ilce-7sm2-2.jpg",
			"width": 299,
			"height": 200
		},
		"camera": "ILCE-7SM2",
		"lens": "SEL2470Z",
		"categories": [ "landscape", "travel" ],
		"caption": "a7S II | Vario-Tessar T* FE 24-70mm F4 ZA OSS | 1/10 sec. | F11.0 | ISO1600"
	},
	{
		"id": 14,
		"url": "img/gallery/photos/img-ilce-6300-1.jpg",
		"thumb": {
			"src": "img/gallery/photos/thumb-img-ilce-6300-1.jpg",
			"width": 300,
			"height": 200
		},
		"camera": "ILCE-6300",
		"lens": "SEL70200G",
		"categories": [ "sportsaction" ],
		"caption": "a6300 | FE 70-200mm F4 G OSS | 1/2000 sec. | F4.0 | ISO200"
	},
	{
		"id": 15,
		"url": "img/gallery/photos/img-ilce-6300-2.jpg",
		"thumb": {
			"src": "img/gallery/photos/thumb-img-ilce-6300-2.jpg",
			"width": 300,
			"height": 200
		},
		"camera": "ILCE-6300",
		"lens": "SEL70200G",
		"categories": [ "wildlife" ],
		"caption": "a6300 | FE 70-200mm F4 G OSS | 1/1250 sec. | F4.0 | ISO100"
	},
	{
		"id": 16,
		"url": "img/gallery/photos/img-ilce-6300-3.jpg",
		"thumb": {
			"src": "img/gallery/photos/thumb-img-ilce-6300-3.jpg",
			"width": 300,
			"height": 200
		},
		"camera": "ILCE-6300",
		"lens": "SEL70200G",
		"categories": [ "sportsaction" ],
		"caption": "a6300 | FE 70-200mm F4 G OSS | 1/1000 sec. | F6.3 | ISO200"
	},
	{
		"id": 17,
		"url": "img/gallery/photos/img-ilce-6300-4.jpg",
		"thumb": {
			"src": "img/gallery/photos/thumb-img-ilce-6300-4.jpg",
			"width": 300,
			"height": 200
		},
		"camera": "ILCE-6300",
		"lens": "SEL70200G",
		"categories": [ "wildlife" ],
		"caption": "a6300 | FE 70-200mm F4 G OSS | 1/320 sec. | F4.0 | ISO250"
	},
	{
		"id": 18,
		"url": "img/gallery/photos/img-ilce-6300-5.jpg",
		"thumb": {
			"src": "img/gallery/photos/thumb-img-ilce-6300-5.jpg",
			"width": 133,
			"height": 200
		},
		"camera": "ILCE-6300",
		"lens": "SEL70200G",
		"categories": [ "travel", "landscape" ],
		"caption": "a6300 | FE 70-200mm F4 G OSS"
	},
	{
		"id": 19,
		"url": "img/gallery/photos/img-ilce-6300-6.jpg",
		"thumb": {
			"src": "img/gallery/photos/thumb-img-ilce-6300-6.jpg",
			"width": 300,
			"height": 200
		},
		"camera": "ILCE-6300",
		"lens": "SEL1670Z",
		"categories": [ "nightscene" ],
		"caption": "a6300 | Vario-Tessar T* E 16-70mm F4 ZA OSS | 1.3 sec. | F8.0 | ISO800"
	},
	{
		"id": 20,
		"url": "img/gallery/photos/img-ilce-6300-7.jpg",
		"thumb": {
			"src": "img/gallery/photos/thumb-img-ilce-6300-7.jpg",
			"width": 300,
			"height": 200
		},
		"camera": "ILCE-6300",
		"lens": "SAL300F28G2",
		"categories": [ "sportsaction" ],
		"caption": "a6300 | 300mm F2.8 G SSM II | 1/640 sec. | F2.8 | ISO100"
	},
	{
		"id": 21,
		"url": "img/gallery/photos/img-ilce-7rm2-10.jpg",
		"thumb": {
			"src": "img/gallery/photos/thumb-img-ilce-7rm2-10.jpg",
			"width": 300,
			"height": 200
		},
		"camera": "ILCE-7RM2",
		"lens": "SEL90M28G",
		"categories": [ "macro" ],
		"caption": "a7R II | FE 90mm F2.8 Macro G OSS | 1/8 sec. | F8.0 | ISO100"
	},
	{
		"id": 22,
		"url": "img/gallery/photos/img-ilce-7rm2-11.jpg",
		"thumb": {
			"src": "img/gallery/photos/thumb-img-ilce-7rm2-11.jpg",
			"width": 300,
			"height": 200
		},
		"camera": "ILCE-7RM2",
		"lens": "SEL1635Z",
		"categories": [ "travel", "indoor" ],
		"caption": "a7R II | Vario-Tessar T* FE 16-35mm F4 ZA OSS | 2.0 sec. | F8.0 | ISO100"
	},
	{
		"id": 23,
		"url": "img/gallery/photos/img-ilce-7m2-3.jpg",
		"thumb": {
			"src": "img/gallery/photos/thumb-img-ilce-7m2-3.jpg",
			"width": 300,
			"height": 200
		},
		"camera": "ILCE-7M2",
		"lens": "SEL1635Z",
		"categories": [ "snap", "travel", "sportsaction" ],
		"caption": "a7 II | Vario-Tessar T* FE 16-35mm F4 ZA OSS | 1/20 sec. | F22.0 | ISO100"
	},
	{
		"id": 24,
		"url": "img/gallery/photos/img-ilce-7m2-4.jpg",
		"thumb": {
			"src": "img/gallery/photos/thumb-img-ilce-7m2-4.jpg",
			"width": 300,
			"height": 200
		},
		"camera": "ILCE-7M2",
		"lens": "SEL55F18Z",
		"categories": [ "portrait", "snap" ],
		"caption": "a7 II | Sonnar T* FE 55mm F1.8 ZA | 1/1250 sec. | F2.8 | ISO100"
	},
	{
		"id": 25,
		"url": "img/gallery/photos/img-ilce-6300-8.jpg",
		"thumb": {
			"src": "img/gallery/photos/thumb-img-ilce-6300-8.jpg",
			"width": 300,
			"height": 200
		},
		"camera": "ILCE-6300",
		"lens": "SEL70300G",
		"categories": [ "snap", "wildlife" ],
		"caption": "a6300 | FE 70-300mm F4.5-5.6 G OSS | 1/400 sec. | F5.6 | ISO200"
	},
	{
		"id": 26,
		"url": "img/gallery/photos/img-ilce-5100-1.jpg",
		"thumb": {
			"src": "img/gallery/photos/thumb-img-ilce-5100-1.jpg",
			"width": 300,
			"height": 200
		},
		"camera": "ILCE-5100",
		"lens": "SELP1650",
		"categories": [ "landscape" ],
		"caption": "a5100 | E PZ 16-50mm F3.5-5.6 OSS | 1/500 sec. | F8.0 | ISO100"
	},
	{
		"id": 27,
		"url": "img/gallery/photos/img-ilce-5100-2.jpg",
		"thumb": {
			"src": "img/gallery/photos/thumb-img-ilce-5100-2.jpg",
			"width": 300,
			"height": 200
		},
		"camera": "ILCE-5100",
		"lens": "SEL55210",
		"categories": [ "sportsaction" ],
		"caption": "a5100 | E 55-210mm F4.5-6.3 OSS | 1/2500 sec. | F4.5 | ISO160"
	},
	{
		"id": 28,
		"url": "img/gallery/photos/img-ilce-7-1.jpg",
		"thumb": {
			"src": "img/gallery/photos/thumb-img-ilce-7-1.jpg",
			"width": 300,
			"height": 200
		},
		"camera": "ILCE-7",
		"lens": "SEL2870",
		"categories": [ "portrait", "snap" ],
		"caption": "a7 | FE 28-70mm F3.5-5.6 OSS | 1/400 sec. | F4.0 | ISO800"
	},
	{
		"id": 29,
		"url": "img/gallery/photos/img-ilce-7-2.jpg",
		"thumb": {
			"src": "img/gallery/photos/thumb-img-ilce-7-2.jpg",
			"width": 300,
			"height": 200
		},
		"camera": "ILCE-7",
		"lens": "SEL55F18Z",
		"categories": [ "portrait", "snap" ],
		"caption": "a7 | Sonnar T* FE 55mm F1.8 ZA | 1/250 sec. | F2.2 | ISO400"
	},
	{
		"id": 30,
		"url": "img/gallery/photos/img-ilce-7r-1.jpg",
		"thumb": {
			"src": "img/gallery/photos/thumb-img-ilce-7r-1.jpg",
			"width": 300,
			"height": 200
		},
		"camera": "ILCE-7R",
		"lens": "SAL100M28",
		"categories": [ "macro" ],
		"caption": "a7R | 100mm F2.8 Macro | 1/5000 sec. | F11.0 | ISO6400"
	},
	{
		"id": 31,
		"url": "img/gallery/photos/img-ilce-7r-2.jpg",
		"thumb": {
			"src": "img/gallery/photos/thumb-img-ilce-7r-2.jpg",
			"width": 300,
			"height": 200
		},
		"camera": "ILCE-7R",
		"lens": "SAL85F14Z",
		"categories": [ "portrait", "snap" ],
		"caption": "a7R | Planar T* 85mm F1.4 ZA | 1/320 sec. | F1.4 | ISO100"
	},
	{
		"id": 32,
		"url": "img/gallery/photos/img-ilce-7r-3.jpg",
		"thumb": {
			"src": "img/gallery/photos/thumb-img-ilce-7r-3.jpg",
			"width": 300,
			"height": 200
		},
		"camera": "ILCE-7R",
		"lens": "SAL100M28",
		"categories": [ "macro", "wildlife" ],
		"caption": "a7R | 100mm F2.8 Macro | 1/5 sec. | F2.8 | ISO200"
	},
	{
		"id": 33,
		"url": "img/gallery/photos/img-ilce-7s-1.jpg",
		"thumb": {
			"src": "img/gallery/photos/thumb-img-ilce-7s-1.jpg",
			"width": 300,
			"height": 200
		},
		"camera": "ILCE-7S",
		"lens": "SEL2470Z",
		"categories": [ "landscape", "travel" ],
		"caption": "a7S | Vario-Tessar T* FE 24-70mm F4 ZA OSS | 1/25 sec. | F8.0 | ISO100"
	},
	{
		"id": 34,
		"url": "img/gallery/photos/img-ilce-7s-2.jpg",
		"thumb": {
			"src": "img/gallery/photos/thumb-img-ilce-7s-2.jpg",
			"width": 299,
			"height": 200
		},
		"camera": "ILCE-7S",
		"lens": "SAL100M28",
		"categories": [ "macro", "wildlife" ],
		"caption": "a7S | 100mm F2.8 Macro | 1/1000 sec. | F5.6 | ISO6400"
	},
	{
		"id": 35,
		"url": "img/gallery/photos/img-ilce-5000-1.jpg",
		"thumb": {
			"src": "img/gallery/photos/thumb-img-ilce-5000-1.jpg",
			"width": 300,
			"height": 200
		},
		"camera": "ILCE-5000",
		"lens": "SEL30M35",
		"categories": [ "macro", "snap" ],
		"caption": "a5000 | E 30mm F3.5 Macro | 0.4 sec. | F8.0 | ISO100"
	},
	{
		"id": 36,
		"url": "img/gallery/photos/img-ilce-5000-2.jpg",
		"thumb": {
			"src": "img/gallery/photos/thumb-img-ilce-5000-2.jpg",
			"width": 300,
			"height": 200
		},
		"camera": "ILCE-5000",
		"lens": "SELP1650",
		"categories": [ "snap", "nightscene" ],
		"caption": "a5000 | E PZ 16-50mm F3.5-5.6 OSS | 1/25 sec. | F8.0 | ISO3200"
	},
	{
		"id": 37,
		"url": "img/gallery/photos/img-ilce-6000-1.jpg",
		"thumb": {
			"src": "img/gallery/photos/thumb-img-ilce-6000-1.jpg",
			"width": 300,
			"height": 200
		},
		"camera": "ILCE-6000",
		"lens": "SEL1670Z",
		"categories": [ "landscape" ],
		"caption": "a6000 | Vario-Tessar T* E 16-70mm F4 ZA OSS | 1/250 sec. | F8.0 | ISO100"
	},
	{
		"id": 38,
		"url": "img/gallery/photos/img-ilce-7m2-5.jpg",
		"thumb": {
			"src": "img/gallery/photos/thumb-img-ilce-7m2-5.jpg",
			"width": 300,
			"height": 200
		},
		"camera": "ILCE-7M2",
		"lens": "SAL100M28",
		"categories": [ "wildlife", "macro" ],
		"caption": "a7 II | 100mm F2.8 Macro | 1/25 sec. | F9.0 | ISO200"
	},
	{
		"id": 39,
		"url": "img/gallery/photos/img-ilce-7m2-6.jpg",
		"thumb": {
			"src": "img/gallery/photos/thumb-img-ilce-7m2-6.jpg",
			"width": 300,
			"height": 200
		},
		"camera": "ILCE-7M2",
		"lens": "SEL50F18F",
		"categories": [ "portrait", "snap" ],
		"caption": "a7 II | FE 50mm F1.8 | 1/160 sec. | F1.8 | ISO100"
	},
	{
		"id": 40,
		"url": "img/gallery/photos/img-ilce-7m2-7.jpg",
		"thumb": {
			"src": "img/gallery/photos/thumb-img-ilce-7m2-7.jpg",
			"width": 300,
			"height": 200
		},
		"camera": "ILCE-7M2",
		"lens": "SEL2470Z",
		"categories": [ "portrait", "snap", "nightscene" ],
		"caption": "a7 II | Vario-Tessar T* FE 24-70mm F4 ZA OSS | 1/60 sec. | F4.5 | ISO800"
	},
	{
		"id": 41,
		"url": "img/gallery/photos/img-ilce-7rm2-12.jpg",
		"thumb": {
			"src": "img/gallery/photos/thumb-img-ilce-7rm2-12.jpg",
			"width": 300,
			"height": 200
		},
		"camera": "ILCE-7RM2",
		"lens": "SEL50F18F",
		"categories": [ "snap", "indoor" ],
		"caption": "a7R II | FE 50mm F1.8 | 1/100 sec. | F1.8 | ISO100"
	},
	{
		"id": 42,
		"url": "img/gallery/photos/img-ilce-7rm2-13.jpg",
		"thumb": {
			"src": "img/gallery/photos/thumb-img-ilce-7rm2-13.jpg",
			"width": 300,
			"height": 200
		},
		"camera": "ILCE-7RM2",
		"lens": "SEL70300G",
		"categories": [ "travel", "landscape" ],
		"caption": "a7R II | FE 70-300mm F4.5-5.6 G OSS | 1/6 sec. | F16.0 | ISO200"
	},
	{
		"id": 43,
		"url": "img/gallery/photos/img-ilce-7rm2-14.jpg",
		"thumb": {
			"src": "img/gallery/photos/thumb-img-ilce-7rm2-14.jpg",
			"width": 300,
			"height": 200
		},
		"camera": "ILCE-7RM2",
		"lens": "SEL50F18F",
		"categories": [ "snap", "indoor" ],
		"caption": "a7R II | FE 50mm F1.8 | 1/250 sec. | F2.0 | ISO200"
	},
	{
		"id": 44,
		"url": "img/gallery/photos/img-ilce-7rm2-15.jpg",
		"thumb": {
			"src": "img/gallery/photos/thumb-img-ilce-7rm2-15.jpg",
			"width": 300,
			"height": 200
		},
		"camera": "ILCE-7RM2",
		"lens": "SEL50F18F",
		"categories": [ "snap", "indoor" ],
		"caption": "a7R II | FE 50mm F1.8 | 1/3200 sec. | F1.8 | ISO100"
	},
	{
		"id": 45,
		"url": "img/gallery/photos/img-ilce-7sm2-3.jpg",
		"thumb": {
			"src": "img/gallery/photos/thumb-img-ilce-7sm2-3.jpg",
			"width": 299,
			"height": 200
		},
		"camera": "ILCE-7SM2",
		"lens": "SEL70200G",
		"categories": [ "sportsaction", "travel", "portrait" ],
		"caption": "a7S II | FE 70-200mm F4 G OSS | 1/640 sec. | F4.0 | ISO1250"
	},
	{
		"id": 46,
		"url": "img/gallery/photos/img-ilce-7sm2-4.jpg",
		"thumb": {
			"src": "img/gallery/photos/thumb-img-ilce-7sm2-4.jpg",
			"width": 299,
			"height": 200
		},
		"camera": "ILCE-7SM2",
		"lens": "SAL70400G2",
		"categories": [ "wildlife", "nightscene" ],
		"caption": "a7S II | 70–400mm F4–5.6 G SSM II | 1/80 sec. | F5.6 | ISO6400"
	},
	{
		"id": 47,
		"url": "img/gallery/photos/img-ilce-7sm2-5.jpg",
		"thumb": {
			"src": "img/gallery/photos/thumb-img-ilce-7sm2-5.jpg",
			"width": 299,
			"height": 200
		},
		"camera": "ILCE-7SM2",
		"lens": "SEL90M28G",
		"categories": [ "macro", "indoor" ],
		"caption": "a7S II | FE 90mm F2.8 Macro G OSS | 1/640 sec. | F8.0 | ISO51200"
	},
	{
		"id": 48,
		"url": "img/gallery/photos/img-ilce-7rm2-16.jpg",
		"thumb": {
			"src": "img/gallery/photos/thumb-img-ilce-7rm2-16.jpg",
			"width": 300,
			"height": 200
		},
		"camera": "ILCE-7RM2",
		"lens": "SEL90M28G",
		"categories": [ "portrait", "indoor" ],
		"caption": "a7R II | FE 90mm F2.8 Macro G OSS | 1/125 sec. | F5.6 | ISO100"
	},
	{
		"id": 49,
		"url": "img/gallery/photos/img-ilce-7rm2-17.jpg",
		"thumb": {
			"src": "img/gallery/photos/thumb-img-ilce-7rm2-17.jpg",
			"width": 300,
			"height": 200
		},
		"camera": "ILCE-7RM2",
		"lens": "SEL70300G",
		"categories": [ "macro" ],
		"caption": "a7R II | FE 70-300mm F4.5-5.6 G OSS | 1/20 sec. | F16.0 | ISO400"
	},
	{
		"id": 50,
		"url": "img/gallery/photos/img-ilce-7sm2-6.jpg",
		"thumb": {
			"src": "img/gallery/photos/thumb-img-ilce-7sm2-6.jpg",
			"width": 299,
			"height": 200
		},
		"camera": "ILCE-7SM2",
		"lens": "SEL70200G",
		"categories": [ "landscape", "travel" ],
		"caption": "a7S II | FE 70-200mm F2.8 GM OSS | 1/800 sec. | F8.0 | ISO3200"
	},
	{
		"id": 51,
		"url": "img/gallery/photos/img-ilce-6300-9.jpg",
		"thumb": {
			"src": "img/gallery/photos/thumb-img-ilce-6300-9.jpg",
			"width": 300,
			"height": 200
		},
		"camera": "ILCE-6300",
		"lens": "SEL70200G",
		"categories": [ "wildlife" ],
		"caption": "a6300 | FE 70-200mm F4 G OSS | 1/1,000 sec | F4 | ISO 125"
	},
	{
		"id": 52,
		"url": "img/gallery/photos/img-ilce-6300-10.jpg",
		"thumb": {
			"src": "img/gallery/photos/thumb-img-ilce-6300-10.jpg",
			"width": 300,
			"height": 200
		},
		"camera": "ILCE-6300",
		"lens": "SEL70200G",
		"categories": [ "landscape", "travel" ],
		"caption": "a6300 | FE 70-200mm F4 G OSS | 1/500 sec | F5.6 | ISO 100"
	},
	{
		"id": 53,
		"url": "img/gallery/photos/img-ilce-7sm2-7.jpg",
		"thumb": {
			"src": "img/gallery/photos/thumb-img-ilce-7sm2-7.jpg",
			"width": 299,
			"height": 200
		},
		"camera": "ILCE-7SM2",
		"lens": "SEL90M28G",
		"categories": [ "nightscene" ],
		"caption": "a7S II | FE 90mm F2.8 Macro G OSS | 1 sec | F5.6 | ISO 25600"
	},
	{
		"id": 54,
		"url": "img/gallery/photos/img-ilce-7sm2-8.jpg",
		"thumb": {
			"src": "img/gallery/photos/thumb-img-ilce-7sm2-8.jpg",
			"width": 299,
			"height": 200
		},
		"camera": "ILCE-7SM2",
		"lens": "SEL1635Z",
		"categories": [ "landscape" ],
		"caption": "a7S II | FE 16-35mm F4 ZA OSS | 1/13 sec | F11 | ISO 100"
	},
	{
		"id": 55,
		"url": "img/gallery/photos/img-ilce-7sm2-9.jpg",
		"thumb": {
			"src": "img/gallery/photos/thumb-img-ilce-7sm2-9.jpg",
			"width": 299,
			"height": 200
		},
		"camera": "ILCE-7SM2",
		"lens": "SEL70200G",
		"categories": [ "nightscene", "indoor" ],
		"caption": "a7S II | FE 70-200mm F4 G OSS | 1/1,000 sec | F7.1 | ISO 12800"
	},
	{
		"id": 56,
		"url": "img/gallery/photos/img-ilce-7sm2-10.jpg",
		"thumb": {
			"src": "img/gallery/photos/thumb-img-ilce-7sm2-10.jpg",
			"width": 299,
			"height": 200
		},
		"camera": "ILCE-7SM2",
		"lens": "SEL2470Z",
		"categories": [ "landscape" ],
		"caption": "a7S II | FE 24-70mm F4 ZA OSS | 1/1,250 sec | F8 | ISO 100"
	},
	{
		"id": 57,
		"url": "img/gallery/photos/img-ilce-7sm2-11.jpg",
		"thumb": {
			"src": "img/gallery/photos/thumb-img-ilce-7sm2-11.jpg",
			"width": 299,
			"height": 200
		},
		"camera": "ILCE-7SM2",
		"lens": "SEL1635Z",
		"categories": [ "landscape" ],
		"caption": "a7S II | FE 16-35mm F4 ZA OSS | 0.5 sec | F8 | ISO 3200"
	},
	{
		"id": 58,
		"url": "img/gallery/photos/img-ilce-7sm2-12.jpg",
		"thumb": {
			"src": "img/gallery/photos/thumb-img-ilce-7sm2-12.jpg",
			"width": 299,
			"height": 200
		},
		"camera": "ILCE-7SM2",
		"lens": "SEL70200G",
		"categories": [ "nightscene", "sportsaction" ],
		"caption": "a7S II | FE 70-200mm F4 G OSS | 1/15 sec | F10 | ISO 3200"
	},
	{
		"id": 59,
		"url": "img/gallery/photos/img-ilce-7sm2-13.jpg",
		"thumb": {
			"src": "img/gallery/photos/thumb-img-ilce-7sm2-13.jpg",
			"width": 299,
			"height": 200
		},
		"camera": "ILCE-7SM2",
		"lens": "SEL90M28G",
		"categories": [ "macro", "wildlife" ],
		"caption": "a7S II | FE 90mm F2.8 Macro G OSS | 1/15 sec | F5.6 | ISO 100"
	},
	{
		"id": 60,
		"url": "img/gallery/photos/img-ilce-7sm2-14.jpg",
		"thumb": {
			"src": "img/gallery/photos/thumb-img-ilce-7sm2-14.jpg",
			"width": 299,
			"height": 200
		},
		"camera": "ILCE-7SM2",
		"lens": "SAL70200G2",
		"categories": [ "indoor", "sportsaction" ],
		"caption": "a7S II | 70-200mm F2.8 G SSM II | 1/1,250 sec | F2.8 | ISO 6400"
	},
	{
		"id": 61,
		"url": "img/gallery/photos/img-ilce-7sm2-15.jpg",
		"thumb": {
			"src": "img/gallery/photos/thumb-img-ilce-7sm2-15.jpg",
			"width": 299,
			"height": 200
		},
		"camera": "ILCE-7SM2",
		"lens": "SEL70200G",
		"categories": [ "portrait", "nightscene" ],
		"caption": "a7S II |FE 70-200mm F4 G OSS | 1/15 sec | F4 | ISO 25600"
	},
	{
		"id": 62,
		"url": "img/gallery/photos/img-ilce-7rm2-18.jpg",
		"thumb": {
			"src": "img/gallery/photos/thumb-img-ilce-7rm2-18.jpg",
			"width": 133,
			"height": 200
		},
		"camera": "ILCE-7RM2",
		"lens": "SEL55F18Z",
		"categories": [ "portrait" ],
		"caption": "a7R II | FE 55mm F1.8 ZA | 1/125 sec | F11 | ISO 100"
	},
	{
		"id": 63,
		"url": "img/gallery/photos/img-ilce-7rm2-19.jpg",
		"thumb": {
			"src": "img/gallery/photos/thumb-img-ilce-7rm2-19.jpg",
			"width": 300,
			"height": 200
		},
		"camera": "ILCE-7RM2",
		"lens": "SEL55F18Z",
		"categories": [ "portrait" , "indoor" ],
		"caption": "a7R II | FE 55mm F1.8 ZA | 1/400 sec | F2.2 | ISO 800"
	},
	{
		"id": 64,
		"url": "img/gallery/photos/img-ilce-7rm2-20.jpg",
		"thumb": {
			"src": "img/gallery/photos/thumb-img-ilce-7rm2-20.jpg",
			"width": 300,
			"height": 200
		},
		"camera": "ILCE-7RM2",
		"lens": "SEL70200G",
		"categories": [ "sportsaction" ],
		"caption": "a7R II | FE 70-200mm F4 G OSS | 1/1,600 sec | F5.6 | ISO 400"
	},
	{
		"id": 65,
		"url": "img/gallery/photos/img-ilce-7rm2-21.jpg",
		"thumb": {
			"src": "img/gallery/photos/thumb-img-ilce-7rm2-21.jpg",
			"width": 300,
			"height": 200
		},
		"camera": "ILCE-7RM2",
		"lens": "SEL35F14Z",
		"categories": [ "landscape", "travel" ],
		"caption": "a7R II | FE 35mm F1.4 ZA | 1/20 sec | F11 | ISO 100"
	},
	{
		"id": 66,
		"url": "img/gallery/photos/img-ilce-7rm2-22.jpg",
		"thumb": {
			"src": "img/gallery/photos/thumb-img-ilce-7rm2-22.jpg",
			"width": 300,
			"height": 200
		},
		"camera": "ILCE-7RM2",
		"lens": "SEL70200G",
		"categories": [ "sportsaction" ],
		"caption": "a7R II | FE 70-200mm F4 G OSS | 1/1,000 sec | F4.5 | ISO 200"
	},
	{
		"id": 67,
		"url": "img/gallery/photos/img-ilce-7m2-8.jpg",
		"thumb": {
			"src": "img/gallery/photos/thumb-img-ilce-7m2-8.jpg",
			"width": 300,
			"height": 200
		},
		"camera": "ILCE-7M2",
		"lens": "SAL70300G",
		"categories": [ "portrait" ],
		"caption": "a7 II | 70-300mm F4.5-5.6 G SSM II | 1/4 sec | F8 | ISO 100"
	},
	{
		"id": 68,
		"url": "img/gallery/photos/img-ilce-7m2-9.jpg",
		"thumb": {
			"src": "img/gallery/photos/thumb-img-ilce-7m2-9.jpg",
			"width": 300,
			"height": 200
		},
		"camera": "ILCE-7M2",
		"lens": "SEL2470Z",
		"categories": [ "portrait" ],
		"caption": "a7 II | FE 24-70mm F4 ZA OSS | 1/30 sec | F7.1 | ISO 200"
	},
	{
		"id": 69,
		"url": "img/gallery/photos/img-ilce-7s-3.jpg",
		"thumb": {
			"src": "img/gallery/photos/thumb-img-ilce-7s-3.jpg",
			"width": 299,
			"height": 200
		},
		"camera": "ILCE-7S",
		"lens": "SEL2470Z",
		"categories": [ "indoor", "nightscene" ],
		"caption": "a7S | FE 24-70mm F4 ZA OSS | 1/320 sec | F4 | ISO 25600"
	},
	{
		"id": 70,
		"url": "img/gallery/photos/img-ilce-7s-4.jpg",
		"thumb": {
			"src": "img/gallery/photos/thumb-img-ilce-7s-4.jpg",
			"width": 299,
			"height": 200
		},
		"camera": "ILCE-7S",
		"lens": "SEL55F18Z",
		"categories": [ "portrait", "indoor", "nightscene" ],
		"caption": "a7S |  FE 55mm F1.8 ZA | 1/250 sec | F2.5 | ISO 12800"
	},
	{
		"id": 71,
		"url": "img/gallery/photos/img-ilce-7s-5.jpg",
		"thumb": {
			"src": "img/gallery/photos/thumb-img-ilce-7s-5.jpg",
			"width": 299,
			"height": 200
		},
		"camera": "ILCE-7S",
		"lens": "SEL55F18Z",
		"categories": [ "portrait", "nightscene" ],
		"caption": "a7S | FE 55mm F1.8 ZA | 1/1,600 sec | F4 | ISO 51200"
	},
	{
		"id": 72,
		"url": "img/gallery/photos/img-ilce-7s-6.jpg",
		"thumb": {
			"src": "img/gallery/photos/thumb-img-ilce-7s-6.jpg",
			"width": 299,
			"height": 200
		},
		"camera": "ILCE-7S",
		"lens": "SEL70200G",
		"categories": [ "macro" ],
		"caption": "a7S | FE 70-200mm F4 G OSS | 1/50 sec | F5.6 | ISO 100"
	},
	{
		"id": 73,
		"url": "img/gallery/photos/img-ilce-7s-7.jpg",
		"thumb": {
			"src": "img/gallery/photos/thumb-img-ilce-7s-7.jpg",
			"width": 299,
			"height": 200
		},
		"camera": "ILCE-7S",
		"lens": "SEL70200G",
		"categories": [ "nightscene", "sportsaction" ],
		"caption": "a7S | FE 70-200mm F4 G OSS | 1/8,000 sec | F7.1 | ISO 51200"
	},
	{
		"id": 74,
		"url": "img/gallery/photos/img-ilce-7r-4.jpg",
		"thumb": {
			"src": "img/gallery/photos/thumb-img-ilce-7r-4.jpg",
			"width": 356,
			"height": 200
		},
		"camera": "ILCE-7R",
		"lens": "SAL85F14Z",
		"categories": [ "portrait", "indoor" ],
		"caption": "a7 | 85mm F1.4 ZA | 1/100 sec | F1.6 | ISO 400"
	},
	{
		"id": 75,
		"url": "img/gallery/photos/img-ilce-7r-5.jpg",
		"thumb": {
			"src": "img/gallery/photos/thumb-img-ilce-7r-5.jpg",
			"width": 300,
			"height": 200
		},
		"camera": "ILCE-7R",
		"lens": "SEL35F28Z",
		"categories": [ "landscape" ],
		"caption": "a7R | FE 35mm F2.8 ZA | 1/40 sec | F6.3 | ISO 400"
	},
	{
		"id": 76,
		"url": "img/gallery/photos/img-ilce-7r-6.jpg",
		"thumb": {
			"src": "img/gallery/photos/thumb-img-ilce-7r-6.jpg",
			"width": 133,
			"height": 200
		},
		"camera": "ILCE-7R",
		"lens": "SEL55F18Z",
		"categories": [ "portrait" ],
		"caption": "a7R | FE 55mm F1.8 ZA | 1/500 sec | F2 | ISO 100"
	},
	{
		"id": 77,
		"url": "img/gallery/photos/img-ilce-7r-7.jpg",
		"thumb": {
			"src": "img/gallery/photos/thumb-img-ilce-7r-7.jpg",
			"width": 300,
			"height": 200
		},
		"camera": "ILCE-7R",
		"lens": "SEL2470Z",
		"categories": [ "landscape", "travel" ],
		"caption": "a7R | FE 24-70mm F4 ZA OSS | 1/160 sec | F11 | ISO 400"
	},
	{
		"id": 78,
		"url": "img/gallery/photos/img-ilce-7-3.jpg",
		"thumb": {
			"src": "img/gallery/photos/thumb-img-ilce-7-3.jpg",
			"width": 300,
			"height": 200
		},
		"camera": "ILCE-7",
		"lens": "SEL35F28Z",
		"categories": [ "landscape", "travel" ],
		"caption": "a7 | FE 35mm F2.8 ZA | 1/500 sec | F11 | ISO 200"
	},
	{
		"id": 79,
		"url": "img/gallery/photos/img-ilce-6000-2.jpg",
		"thumb": {
			"src": "img/gallery/photos/thumb-img-ilce-6000-2.jpg",
			"width": 133,
			"height": 200
		},
		"camera": "ILCE-6000",
		"lens": "SELP1650",
		"categories": [ "landscape", "travel" ],
		"caption": "a6000 | E PZ 16-50mm F3.5-5.6 OSS | 1/160 sec | F8 | ISO 100"
	},
	{
		"id": 80,
		"url": "img/gallery/photos/img-ilce-6000-3.jpg",
		"thumb": {
			"src": "img/gallery/photos/thumb-img-ilce-6000-3.jpg",
			"width": 300,
			"height": 200
		},
		"camera": "ILCE-6000",
		"lens": "SEL1670Z",
		"categories": [ "landscape", "travel" ],
		"caption": "a6000 | E 16-70mm F4 ZA OSS | 1/200 sec | F8 | ISO 100"
	},
	{
		"id": 81,
		"url": "img/gallery/photos/img-ilce-7rm2-23.jpg",
		"thumb": {
			"src": "img/gallery/photos/thumb-img-ilce-7rm2-23.jpg",
			"width": 133,
			"height": 200
		},
		"camera": "ILCE-7RM2",
		"lens": "SEL2470GM",
		"categories": [ "nightscene", "snap" ],
		"caption": "a7R II | FE 24-70mm F2.8 GM | 1/10 sec | F11 | ISO 100"
	},
	{
		"id": 82,
		"url": "img/gallery/photos/img-ilce-7rm2-24.jpg",
		"thumb": {
			"src": "img/gallery/photos/thumb-img-ilce-7rm2-24.jpg",
			"width": 300,
			"height": 200
		},
		"camera": "ILCE-7RM2",
		"lens": "SEL50F14Z",
		"categories": [ "portrait", "indoor" ],
		"caption": "a7R II | FE 50mm F1.4 ZA | 1/100 sec | F1.4 | ISO 100"
	},
	{
		"id": 83,
		"url": "img/gallery/photos/img-ilce-7m2-10.jpg",
		"thumb": {
			"src": "img/gallery/photos/thumb-img-ilce-7m2-10.jpg",
			"width": 133,
			"height": 200
		},
		"camera": "ILCE-7M2",
		"lens": "SEL50F18F",
		"categories": [ "portrait", "indoor" ],
		"caption": "a7R II | FE 50mm F1.8 | 1/50 sec | F1.8 | ISO 100"
	},
	{
		"id": 84,
		"url": "img/gallery/photos/img-ilce-6300-11.jpg",
		"thumb": {
			"src": "img/gallery/photos/thumb-img-ilce-6300-11.jpg",
			"width": 300,
			"height": 200
		},
		"camera": "ILCE-6300",
		"lens": "SEL70300G",
		"categories": [ "sportsaction" ],
		"caption": "a6300 | FE 70-300mm F4.5-5.6 G OSS | 1/1,000 sec | F7.1 | ISO 200"
	},
	{
		"id": 85,
		"url": "img/gallery/photos/img-ilce-5000-3.jpg",
		"thumb": {
			"src": "img/gallery/photos/thumb-img-ilce-5000-3.jpg",
			"width": 300,
			"height": 200
		},
		"camera": "ILCE-5000",
		"lens": "SEL30M35",
		"categories": [ "macro", "snap" ],
		"caption": "a5000 |  E 30mm F3.5 Macro | 0.4 sec | F10 | ISO 100"
	},
	{
		"id": 86,
		"url": "img/gallery/photos/img-ilce-7rm2-25.jpg",
		"thumb": {
			"src": "img/gallery/photos/thumb-img-ilce-7rm2-25.jpg",
			"width": 300,
			"height": 200
		},
		"camera": "ILCE-7RM2",
		"lens": "SEL50F14Z",
		"categories": [ "landscape", "travel" ],
		"caption": "a7R II | FE 50mm F1.4 ZA | 1/200 sec | F2 | ISO 200"
	},
	{
		"id": 87,
		"url": "img/gallery/photos/img-ilce-7rm2-26.jpg",
		"thumb": {
			"src": "img/gallery/photos/thumb-img-ilce-7rm2-26.jpg",
			"width": 300,
			"height": 200
		},
		"camera": "ILCE-7RM2",
		"lens": "SEL50F14Z",
		"categories": [ "landscape", "travel" ],
		"caption": "a7R II | FE 50mm F1.4 ZA | 1/800 sec | F2 | ISO 100"
	},
	{
		"id": 88,
		"url": "img/gallery/photos/img-ilce-7rm2-27.jpg",
		"thumb": {
			"src": "img/gallery/photos/thumb-img-ilce-7rm2-27.jpg",
			"width": 300,
			"height": 200
		},
		"camera": "ILCE-7RM2",
		"lens": "SEL50F14Z",
		"categories": [ "portrait", "indoor" ],
		"caption": "a7R II | FE 50mm F1.4 ZA | 1/50 sec | F1.4 | ISO 100"
	},
	{
		"id": 89,
		"url": "img/gallery/photos/img-ilce-7rm2-28.jpg",
		"thumb": {
			"src": "img/gallery/photos/thumb-img-ilce-7rm2-28.jpg",
			"width": 300,
			"height": 200
		},
		"camera": "ILCE-7RM2",
		"lens": "SEL50F14Z",
		"categories": [ "landscape" ],
		"caption": "a7R II | FE 50mm F1.4 ZA | 1/1,600 sec | F2 | ISO 200"
	},
	{
		"id": 90,
		"url": "img/gallery/photos/img-ilce-5000-4.jpg",
		"thumb": {
			"src": "img/gallery/photos/thumb-img-ilce-5000-4.jpg",
			"width": 300,
			"height": 200
		},
		"camera": "ILCE-5000",
		"lens": "SEL50F18",
		"categories": [ "snap" ],
		"caption": "a5000 | E PZ 16-50mm F3.5-5.6 OSS | 1/160 sec | F8 | ISO 200"
	},
	{
		"id": 91,
		"url": "img/gallery/photos/img-ilce-5000-5.jpg",
		"thumb": {
			"src": "img/gallery/photos/thumb-img-ilce-5000-5.jpg",
			"width": 300,
			"height": 200
		},
		"camera": "ILCE-5000",
		"lens": "SEL50F18",
		"categories": [ "indoor", "snap" ],
		"caption": "a5000 | E PZ 16-50mm F3.5-5.6 OSS | 1/5 sec | F8 | ISO 100"
	},
	{
		"id": 92,
		"url": "img/gallery/photos/img-ilce-7m2-11.jpg",
		"thumb": {
			"src": "img/gallery/photos/thumb-img-ilce-7m2-11.jpg",
			"width": 300,
			"height": 200
		},
		"camera": "ILCE-7M2",
		"lens": "SEL90M28G",
		"categories": [ "macro", "wildlife" ],
		"caption": "a7 II | FE 90mm F2.8 Macro G OSS | 0.6 sec | F5.6 | ISO 400"
	},
	{
		"id": 93,
		"url": "img/gallery/photos/img-ilce-7m2-12.jpg",
		"thumb": {
			"src": "img/gallery/photos/thumb-img-ilce-7m2-12.jpg",
			"width": 300,
			"height": 200
		},
		"camera": "ILCE-7M2",
		"lens": "SEL90M28G",
		"categories": [ "macro", "wildlife" ],
		"caption": "a7 II | FE 90mm F2.8 Macro G OSS | 0.3 sec | F3.5 | ISO 200"
	},
	{
		"id": 94,
		"url": "img/gallery/photos/img-ilce-5000-6.jpg",
		"thumb": {
			"src": "img/gallery/photos/thumb-img-ilce-5000-6.jpg",
			"width": 300,
			"height": 200
		},
		"camera": "ILCE-5000",
		"lens": "SEL55210",
		"categories": [ "wildlife" ],
		"caption": "a5000 | E 55-210mm F4.5-6.3 OSS | 1/125 sec | F7.1 | ISO 800"
	},
	{
		"id": 95,
		"url": "img/gallery/photos/img-ilce-6500-1.jpg",
		"thumb": {
			"src": "img/gallery/photos/thumb-img-ilce-6500-1.jpg",
			"width": 300,
			"height": 200
		},
		"camera": "ILCE-6500",
		"lens": "SAL500F40G",
		"categories": [ "nightscene", "sportsaction" ],
		"caption": "a6500 | 500mm F4 G SSM | 1/160 sec | F11.0 | ISO 100"
	},
	{
		"id": 96,
		"url": "img/gallery/photos/img-ilce-6500-2.jpg",
		"thumb": {
			"src": "img/gallery/photos/thumb-img-ilce-6500-2.jpg",
			"width": 300,
			"height": 200
		},
		"camera": "ILCE-6500",
		"lens": "SEL70200GM",
		"categories": [ "landscape", "travel" ],
		"caption": "a6500 | FE 70-200mm F2.8 GM OSS | 1/400 sec | F8.0 | ISO 100"
	},
	{
		"id": 97,
		"url": "img/gallery/photos/img-ilce-6500-3.jpg",
		"thumb": {
			"src": "img/gallery/photos/thumb-img-ilce-6500-3.jpg",
			"width": 133,
			"height": 200
		},
		"camera": "ILCE-6500",
		"lens": "SEL70200GM",
		"categories": [ "landscape", "travel" ],
		"caption": "a6500 | FE 70-200mm F2.8 GM OSS | 1/640 sec | F8.0 | ISO 100"
	},
	{
		"id": 98,
		"url": "img/gallery/photos/img-ilce-6500-4.jpg",
		"thumb": {
			"src": "img/gallery/photos/thumb-img-ilce-6500-4.jpg",
			"width": 300,
			"height": 200
		},
		"camera": "ILCE-6500",
		"lens": "SEL70200GM",
		"categories": [ "sportsaction" ],
		"caption": "a6500 | FE 70-200mm F2.8 GM OSS | 1/800 sec | F4.5 | ISO 400"
	},
	{
		"id": 99,
		"url": "img/gallery/photos/img-ilce-6500-5.jpg",
		"thumb": {
			"src": "img/gallery/photos/thumb-img-ilce-6500-5.jpg",
			"width": 300,
			"height": 200
		},
		"camera": "ILCE-6500",
		"lens": "SEL70300G",
		"categories": [ "wildlife" ],
		"caption": "a6500 | FE 70-300mm F4.5-5.6 G OSS | 1/250 sec | F6.3 | ISO 100"
	},
	{
		"id": 100,
		"url": "img/gallery/photos/img-ilce-6500-6.jpg",
		"thumb": {
			"src": "img/gallery/photos/thumb-img-ilce-6500-6.jpg",
			"width": 133,
			"height": 200
		},
		"camera": "ILCE-6500",
		"lens": "SEL70300G",
		"categories": [ "wildlife" ],
		"caption": "a6500 | FE 70-300mm F4.5-5.6 G OSS | 1/500 sec | F5.6 | ISO 100"
	},
	{
		"id": 101,
		"url": "img/gallery/photos/img-ilce-6500-7.jpg",
		"thumb": {
			"src": "img/gallery/photos/thumb-img-ilce-6500-7.jpg",
			"width": 300,
			"height": 200
		},
		"camera": "ILCE-6500",
		"lens": "SEL70300G",
		"categories": [ "sportsaction" ],
		"caption": "a6500 | FE 70-300mm F4.5-5.6 G OSS | 1/2000 sec | F5.6 | ISO 400"
	},
	{
		"id": 102,
		"url": "img/gallery/photos/img-ilce-6500-8.jpg",
		"thumb": {
			"src": "img/gallery/photos/thumb-img-ilce-6500-8.jpg",
			"width": 300,
			"height": 200
		},
		"camera": "ILCE-6500",
		"lens": "SEL70300G",
		"categories": [ "sportsaction" ],
		"caption": "a6500 | FE 70-300mm F4.5-5.6 G OSS | 1/2000 sec | F5.6 | ISO 400"
	},
	{
		"id": 103,
		"url": "img/gallery/photos/img-ilce-6500-9.jpg",
		"thumb": {
			"src": "img/gallery/photos/thumb-img-ilce-6500-9.jpg",
			"width": 300,
			"height": 200
		},
		"camera": "ILCE-6500",
		"lens": "SAL70400G2",
		"categories": [ "wildlife" ],
		"caption": "a6500 | 70–400mm F4–5.6 G SSM II | 1/800 sec | F7.1 | ISO 200"
	},
	{
		"id": 104,
		"url": "img/gallery/photos/img-ilca-a99m2-1.jpg",
		"thumb": {
			"src": "img/gallery/photos/thumb-img-ilca-a99m2-1.jpg",
			"width": 300,
			"height": 200
		},
		"camera": "ILCA-A99M2",
		"lens": "SAL500F40G",
		"categories": [ "sportsaction" ],
		"caption": "a99 II | 500mm F4 G SSM | 1/60 sec | F8.0 | ISO 100"
	},
	{
		"id": 105,
		"url": "img/gallery/photos/img-ilca-a99m2-2.jpg",
		"thumb": {
			"src": "img/gallery/photos/thumb-img-ilca-a99m2-2.jpg",
			"width": 300,
			"height": 200
		},
		"camera": "ILCA-A99M2",
		"lens": "SAL500F40G",
		"categories": [ "sportsaction" ],
		"caption": "a99 II | 500mm F4 G SSM | 1/40 sec | F11.0 | ISO 100"
	},
	{
		"id": 106,
		"url": "img/gallery/photos/img-ilca-a99m2-3.jpg",
		"thumb": {
			"src": "img/gallery/photos/thumb-img-ilca-a99m2-3.jpg",
			"width": 300,
			"height": 200
		},
		"camera": "ILCA-A99M2",
		"lens": "SAL500F40G",
		"categories": [ "sportsaction" ],
		"caption": "a99 II | 500mm F4 G SSM | 1/500 sec | F6.3 | ISO 100"
	},
	{
		"id": 107,
		"url": "img/gallery/photos/img-ilca-a99m2-4.jpg",
		"thumb": {
			"src": "img/gallery/photos/thumb-img-ilca-a99m2-4.jpg",
			"width": 300,
			"height": 200
		},
		"camera": "ILCA-A99M2",
		"lens": "SAL500F40G",
		"categories": [ "sportsaction" ],
		"caption": "a99 II | 500mm F4 G SSM | 1/800 sec | F4.5 | ISO 100"
	},
	{
		"id": 108,
		"url": "img/gallery/photos/img-ilca-a99m2-5.jpg",
		"thumb": {
			"src": "img/gallery/photos/thumb-img-ilca-a99m2-5.jpg",
			"width": 300,
			"height": 200
		},
		"camera": "ILCA-A99M2",
		"lens": "SAL500F40G",
		"categories": [ "sportsaction" ],
		"caption": "a99 II | 500mm F4 G SSM | 1/640 sec | F6.3 | ISO 100"
	},
	{
		"id": 109,
		"url": "img/gallery/photos/img-ilca-a99m2-6.jpg",
		"thumb": {
			"src": "img/gallery/photos/thumb-img-ilca-a99m2-6.jpg",
			"width": 300,
			"height": 200
		},
		"camera": "ILCA-A99M2",
		"lens": "SAL70200G2",
		"categories": [ "indoor" ],
		"caption": "a99 II | 70-200mm F2.8 G SSM II | 0.5 sec | F11.0 | ISO 100"
	},
	{
		"id": 110,
		"url": "img/gallery/photos/img-ilca-a99m2-7.jpg",
		"thumb": {
			"src": "img/gallery/photos/thumb-img-ilca-a99m2-7.jpg",
			"width": 300,
			"height": 200
		},
		"camera": "ILCA-A99M2",
		"lens": "SAL70200G2",
		"categories": [ "indoor", "nightscene" ],
		"caption": "a99 II | 70-200mm F2.8 G SSM II | 1/1000 sec | F2.8 | ISO 1600"
	},
	{
		"id": 111,
		"url": "img/gallery/photos/img-ilca-a99m2-8.jpg",
		"thumb": {
			"src": "img/gallery/photos/thumb-img-ilca-a99m2-8.jpg",
			"width": 300,
			"height": 200
		},
		"camera": "ILCA-A99M2",
		"lens": "SAL2470Z2",
		"categories": [ "indoor", "nightscene" ],
		"caption": "a99 II | Vario-Sonnar T* 24-70mm F2.8 ZA SSM II | 1/8 sec | F8.0 | ISO 1600"
	},
	{
		"id": 112,
		"url": "img/gallery/photos/img-ilca-a99m2-9.jpg",
		"thumb": {
			"src": "img/gallery/photos/thumb-img-ilca-a99m2-9.jpg",
			"width": 300,
			"height": 200
		},
		"camera": "ILCA-A99M2",
		"lens": "SAL85F14Z",
		"categories": [ "indoor", "nightscene" ],
		"caption": "a99 II | Planar T* 85mm F1.4 ZA | 1/125 sec | F2.0 | ISO 100"
	},
	{
		"id": 113,
		"url": "img/gallery/photos/img-ilce-a9-1.jpg",
		"thumb": {
			"src": "img/gallery/photos/thumb-img-ilce-a9-1.jpg",
			"width": 300,
			"height": 200
		},
		"camera": "ILCE-9",
		"lens": "SEL1635Z",
		"categories": [ "sportsaction", "snap", "indoor" ],
		"caption": "a9 | Vario-Tessar T* FE 16-35mm F4 ZA OSS | 1/1250 sec | F4.0 | ISO 2500"
	},
	{
		"id": 114,
		"url": "img/gallery/photos/img-ilce-a9-2.jpg",
		"thumb": {
			"src": "img/gallery/photos/thumb-img-ilce-a9-2.jpg",
			"width": 300,
			"height": 200
		},
		"camera": "ILCE-9",
		"lens": "SEL70200GM",
		"categories": [ "sportsaction", "snap" ],
		"caption": "a9 | FE 70-200mm F2.8 GM OSS | 1/3200 sec | F4.0 | ISO 400"
	},
	{
		"id": 115,
		"url": "img/gallery/photos/img-ilce-a9-3.jpg",
		"thumb": {
			"src": "img/gallery/photos/thumb-img-ilce-a9-3.jpg",
			"width": 300,
			"height": 200
		},
		"camera": "ILCE-9",
		"lens": "SEL70200GM",
		"categories": [ "portrait", "sportsaction" ],
		"caption": "a9 | FE 70-200mm F2.8 GM OSS | 1/5000 sec | F3.5 | ISO 1600"
	},
	{
		"id": 116,
		"url": "img/gallery/photos/img-ilce-a9-4.jpg",
		"thumb": {
			"src": "img/gallery/photos/thumb-img-ilce-a9-4.jpg",
			"width": 300,
			"height": 200
		},
		"camera": "ILCE-9",
		"lens": "SEL70200GM",
		"categories": [ "sportsaction", "snap" ],
		"caption": "a9 | FE 70-200mm F2.8 GM OSS | 1/2500 sec | F5.6 | ISO 200"
	},
	{
		"id": 117,
		"url": "img/gallery/photos/img-ilce-a9-5.jpg",
		"thumb": {
			"src": "img/gallery/photos/thumb-img-ilce-a9-5.jpg",
			"width": 300,
			"height": 200
		},
		"camera": "ILCE-9",
		"lens": "SEL70200GM",
		"categories": [ "portrait", "sportsaction" ],
		"caption": "a9 | FE 70-200mm F2.8 GM OSS | 1/3200 sec | F2.8 | ISO 200"
	},
	{
		"id": 118,
		"url": "img/gallery/photos/img-ilce-a9-6.jpg",
		"thumb": {
			"src": "img/gallery/photos/thumb-img-ilce-a9-6.jpg",
			"width": 300,
			"height": 200
		},
		"camera": "ILCE-9",
		"lens": "SEL70200GM",
		"categories": [ "sportsaction" ],
		"caption": "a9 | FE 70-200mm F2.8 GM OSS | 1/1250 sec | F3.5 | ISO 2000"
	},
	{
		"id": 119,
		"url": "img/gallery/photos/img-ilce-a9-7.jpg",
		"thumb": {
			"src": "img/gallery/photos/thumb-img-ilce-a9-7.jpg",
			"width": 300,
			"height": 200
		},
		"camera": "ILCE-9",
		"lens": "SEL70200GM",
		"categories": [ "sportsaction", "portrait" ],
		"caption": "a9 | FE 70-200mm F2.8 GM OSS | 1/2000 sec | F4.0 | ISO 400"
	},
	{
		"id": 120,
		"url": "img/gallery/photos/img-ilce-a9-8.jpg",
		"thumb": {
			"src": "img/gallery/photos/thumb-img-ilce-a9-8.jpg",
			"width": 300,
			"height": 200
		},
		"camera": "ILCE-9",
		"lens": "SEL70200GM",
		"categories": [ "sportsaction" ],
		"caption": "a9 | FE 70-200mm F2.8 GM OSS | 1/2500 sec | F2.8 | ISO 1250"
	},
	{
		"id": 121,
		"url": "img/gallery/photos/img-ilce-a9-9.jpg",
		"thumb": {
			"src": "img/gallery/photos/thumb-img-ilce-a9-9.jpg",
			"width": 300,
			"height": 200
		},
		"camera": "ILCE-9",
		"lens": "SEL70200GM",
		"categories": [ "sportsaction"],
		"caption": "a9 | FE 70-200mm F2.8 GM OSS | 1/1000 sec | F2.8 | ISO 3200"
	},
	{
		"id": 122,
		"url": "img/gallery/photos/img-ilce-a9-10.jpg",
		"thumb": {
			"src": "img/gallery/photos/thumb-img-ilce-a9-10.jpg",
			"width": 300,
			"height": 200
		},
		"camera": "ILCE-9",
		"lens": "SEL100400GM",
		"categories": [ "sportsaction", "portrait" ],
		"caption": "a9 | FE 100-400mm F4.5-5.6 GM OSS | 1/1000 sec | F5.6 | ISO 200"
	},
	{
		"id": 123,
		"url": "img/gallery/photos/img-ilce-a9-11.jpg",
		"thumb": {
			"src": "img/gallery/photos/thumb-img-ilce-a9-11.jpg",
			"width": 300,
			"height": 200
		},
		"camera": "ILCE-9",
		"lens": "SEL100400GM",
		"categories": [ "sportsaction" ],
		"caption": "a9 | FE 100-400mm F4.5-5.6 GM OSS | 1/1250 sec | F5.6 | ISO 200"
	},
	{
		"id": 124,
		"url": "img/gallery/photos/img-ilce-a9-12.jpg",
		"thumb": {
			"src": "img/gallery/photos/thumb-img-ilce-a9-12.jpg",
			"width": 300,
			"height": 200
		},
		"camera": "ILCE-9",
		"lens": "SEL100400GM",
		"categories": [ "sportsaction" ],
		"caption": "a9 | FE 100-400mm F4.5-5.6 GM OSS | 1/800 sec | F5.6 | ISO 3200"
	}
]
